1.2.Random_Number_Generator/Code/Random/simulation/qsim/Random.msim.vcd
$comment
	File created using the following command:
		vcd file Random.msim.vcd -direction
$end
$date
	Sat Feb 13 01:09:47 2021
$end
$version
	ModelSim Version 10.1d
$end
$timescale
	1ps
$end
$scope module Random_vlg_vec_tst $end
$var reg 1 ! clk $end
$var reg 1 " rst $end
$var reg 1 # start $end
$var wire 1 $ R [7] $end
$var wire 1 % R [6] $end
$var wire 1 & R [5] $end
$var wire 1 ' R [4] $end
$var wire 1 ( R [3] $end
$var wire 1 ) R [2] $end
$var wire 1 * R [1] $end
$var wire 1 + R [0] $end
$var wire 1 , R_b [7] $end
$var wire 1 - R_b [6] $end
$var wire 1 . R_b [5] $end
$var wire 1 / R_b [4] $end
$var wire 1 0 R_b [3] $end
$var wire 1 1 R_b [2] $end
$var wire 1 2 R_b [1] $end
$var wire 1 3 R_b [0] $end
$var wire 1 4 sampler $end
$scope module i1 $end
$var wire 1 5 gnd $end
$var wire 1 6 vcc $end
$var wire 1 7 unknown $end
$var tri1 1 8 devclrn $end
$var tri1 1 9 devpor $end
$var tri1 1 : devoe $end
$var wire 1 ; clk~combout $end
$var wire 1 < clk~clkctrl_outclk $end
$var wire 1 = start~combout $end
$var wire 1 > rst~combout $end
$var wire 1 ? R_b~0_combout $end
$var wire 1 @ R~6_combout $end
$var wire 1 A R[6]~reg0_regout $end
$var wire 1 B R~7_combout $end
$var wire 1 C R[7]~reg0_regout $end
$var wire 1 D R~1_combout $end
$var wire 1 E R[1]~reg0_regout $end
$var wire 1 F R~2_combout $end
$var wire 1 G R[2]~reg0_regout $end
$var wire 1 H R~3_combout $end
$var wire 1 I R[3]~reg0_regout $end
$var wire 1 J R~4_combout $end
$var wire 1 K R[4]~reg0_regout $end
$var wire 1 L R~5_combout $end
$var wire 1 M R[5]~reg0_regout $end
$var wire 1 N R~0_combout $end
$var wire 1 O R[0]~reg0_regout $end
$var wire 1 P R_b[0]~1_combout $end
$var wire 1 Q R_b[0]~2_combout $end
$var wire 1 R R_b[0]~3_combout $end
$var wire 1 S R_b[0]~4_combout $end
$var wire 1 T R_b[0]~reg0_regout $end
$var wire 1 U R_b~5_combout $end
$var wire 1 V R_b[1]~reg0_regout $end
$var wire 1 W R_b~6_combout $end
$var wire 1 X R_b[2]~reg0_regout $end
$var wire 1 Y R_b~7_combout $end
$var wire 1 Z R_b[3]~reg0_regout $end
$var wire 1 [ R_b~8_combout $end
$var wire 1 \ R_b[4]~reg0_regout $end
$var wire 1 ] R_b~9_combout $end
$var wire 1 ^ R_b[5]~reg0_regout $end
$var wire 1 _ R_b~10_combout $end
$var wire 1 ` R_b[6]~reg0_regout $end
$var wire 1 a R_b~11_combout $end
$var wire 1 b R_b[7]~reg0_regout $end
$upscope $end
$upscope $end
$enddefinitions $end
#0
$dumpvars
0!
0"
0#
1+
0*
0)
1(
0'
0&
0%
1$
03
02
01
00
0/
0.
0-
0,
x4
05
16
x7
18
19
1:
0;
0<
0=
0>
0?
1@
0A
0B
0C
0D
0E
0F
0G
1H
0I
0J
0K
1L
0M
0N
0O
0P
0Q
0R
1S
0T
0U
0V
0W
0X
0Y
0Z
0[
0\
0]
0^
0_
0`
0a
0b
$end
#20000
1!
1;
1<
04
1M
1I
1A
1R
0@
1J
1B
1&
1%
0(
#40000
0!
0;
0<
14
#60000
1!
1;
1<
04
1K
1C
0A
0R
1N
0J
1D
1@
1'
0%
0$
#80000
0!
0;
0<
14
#100000
1!
1;
1<
04
1O
0K
1E
1A
1P
0D
1R
0L
1F
0B
0'
1*
1%
0+
#120000
0!
0;
0<
14
#140000
1!
1;
1<
04
0M
1G
0E
0C
0R
0H
0P
0F
0N
1L
1J
1D
1B
0&
1)
0*
1$
#160000
1#
0!
1=
0;
0<
14
1a
1_
1W
0S
#180000
1!
1;
1<
04
0O
1M
1K
0I
0G
1E
1C
1P
1?
1]
1R
1[
1Y
0W
1H
1U
1F
0a
1S
1N
0B
1&
1'
0)
1*
1+
1(
0$
1Q
0S
#200000
0!
0;
0<
14
#220000
1!
1;
1<
04
1O
1I
1G
0C
0?
0Y
0Q
1W
0H
1a
0N
0L
1B
0@
1)
0+
0(
1$
#240000
0!
0;
0<
14
#260000
1!
1;
1<
04
0O
0M
0I
1C
0A
0P
1?
0]
0R
1Y
0a
1N
1L
0_
0&
0%
1+
1(
0$
1S
#280000
0!
0;
0<
14
#300000
1!
1;
1<
04
1\
1Z
1X
1V
1T
1O
1M
0D
0?
1]
1@
1/
10
11
12
13
1&
0+
#320000
0!
0;
0<
14
#340000
1!
1;
1<
04
1^
0T
0E
1A
0U
0F
1_
1R
1Q
0B
1.
03
0*
1%
0S
#360000
0!
0;
0<
14
#380000
1!
1;
1<
04
0G
0C
0W
0Q
1H
1a
0N
0L
0J
1D
1B
0@
0)
1$
#400000
0!
0;
0<
14
#420000
1!
1;
1<
04
0O
0M
0K
1I
1E
1C
0A
1?
0]
0R
0[
0Y
1U
1F
0a
1N
0_
0&
0'
1*
0%
1+
0(
0$
1S
#440000
0!
0;
0<
14
#460000
1!
1;
1<
04
0^
0\
0Z
0X
1T
1O
1G
0D
0?
1W
0H
0.
0/
00
01
13
1)
0+
#480000
0!
0;
0<
14
#500000
1!
1;
1<
04
1X
0T
0I
0E
1Y
1J
0U
1P
0F
11
03
0*
1(
#520000
0!
0;
0<
14
#540000
1!
1;
1<
04
1Z
0V
1K
0G
1[
1L
0W
1H
10
02
1'
0)
#560000
0!
0;
0<
14
#580000
1!
1;
1<
04
1\
0X
1M
1I
1]
1@
0Y
1Q
0J
1/
01
1&
0(
#600000
0!
0;
0<
14
#620000
1!
1;
1<
04
1^
0Z
0K
1A
0[
1R
0L
1_
0Q
0P
0B
1.
00
0'
1%
0S
#640000
0!
0;
0<
14
#660000
1!
1;
1<
04
0M
0C
0]
0R
1a
0N
1L
1J
1D
1B
0&
1$
#680000
0!
0;
0<
14
#700000
1!
1;
1<
04
0O
1M
1K
1E
1C
1P
1?
1]
1R
1[
1U
1F
0a
1S
1N
0J
0B
1&
1'
1*
1+
0$
0S
#720000
0#
0!
0=
0;
0<
14
0_
0]
0[
0U
1S
0?
#740000
1!
1;
1<
04
0^
0\
1O
0K
1G
0C
0H
0N
1J
1B
0@
0.
0/
0'
1)
0+
1$
#760000
0!
0;
0<
14
#780000
1!
1;
1<
04
0O
1K
0I
1C
0A
0P
0R
1N
1@
1'
0%
1+
1(
0$
#800000
0!
0;
0<
14
#820000
1!
1;
1<
04
1O
1A
1P
0D
1R
1Q
0B
1%
0+
#840000
0!
0;
0<
14
#860000
1!
1;
1<
04
0E
0C
0P
0F
0N
0L
0J
1D
1B
0@
0*
1$
#880000
0!
0;
0<
14
#900000
1!
1;
1<
04
0O
0M
0K
0G
1E
1C
0A
0Q
1H
1F
1N
1J
0&
0'
0)
1*
0%
1+
0$
0R
#920000
0!
0;
0<
14
#940000
1!
1;
1<
04
1O
1K
1I
1G
0D
1L
0J
0H
1'
1)
0+
0(
#960000
0!
0;
0<
14
#980000
1!
1;
1<
04
1M
0K
0I
0E
1@
0L
1J
1P
0F
1&
0'
0*
1(
