1.2. Random Number Generator/Code/Controller/simulation/qsim/Controller.msim.vcd
$comment
	File created using the following command:
		vcd file Controller.msim.vcd -direction
$end
$date
	Sat Feb 13 12:36:00 2021
$end
$version
	ModelSim Version 10.1d
$end
$timescale
	1ps
$end
$scope module Controller_vlg_vec_tst $end
$var reg 1 ! Key_0 $end
$var reg 1 " Key_2 $end
$var reg 1 # clk $end
$var reg 1 $ rst $end
$var wire 1 % hex4 [6] $end
$var wire 1 & hex4 [5] $end
$var wire 1 ' hex4 [4] $end
$var wire 1 ( hex4 [3] $end
$var wire 1 ) hex4 [2] $end
$var wire 1 * hex4 [1] $end
$var wire 1 + hex4 [0] $end
$var wire 1 , hex5 [6] $end
$var wire 1 - hex5 [5] $end
$var wire 1 . hex5 [4] $end
$var wire 1 / hex5 [3] $end
$var wire 1 0 hex5 [2] $end
$var wire 1 1 hex5 [1] $end
$var wire 1 2 hex5 [0] $end
$var wire 1 3 sampler $end
$scope module i1 $end
$var wire 1 4 gnd $end
$var wire 1 5 vcc $end
$var wire 1 6 unknown $end
$var tri1 1 7 devclrn $end
$var tri1 1 8 devpor $end
$var tri1 1 9 devoe $end
$var wire 1 : Timeinst|Add0~0_combout $end
$var wire 1 ; Timeinst|Add0~2_combout $end
$var wire 1 < Timeinst|Add0~8_combout $end
$var wire 1 = Timeinst|Add0~28_combout $end
$var wire 1 > Timeinst|Add0~30_combout $end
$var wire 1 ? Timeinst|Add0~60_combout $end
$var wire 1 @ Bcdinst|d_0~4_combout $end
$var wire 1 A Bcdinst|d_0~9_combout $end
$var wire 1 B Bcdinst|LessThan7~0_combout $end
$var wire 1 C Numberinst|Equal4~1_combout $end
$var wire 1 D Numberinst|Equal5~3_combout $end
$var wire 1 E Numberinst|Equal6~0_combout $end
$var wire 1 F Timeinst|t~4_combout $end
$var wire 1 G Randominst|R~0_combout $end
$var wire 1 H Timeinst|Y~14_combout $end
$var wire 1 I Timeinst|Y~15_combout $end
$var wire 1 J Timeinst|Y[30]~30_combout $end
$var wire 1 K Timeinst|Y~33_combout $end
$var wire 1 L clk~combout $end
$var wire 1 M clk~clkctrl_outclk $end
$var wire 1 N Numberinst|c[0]~feeder_combout $end
$var wire 1 O Numberinst|R_n[2]~feeder_combout $end
$var wire 1 P Numberinst|c[2]~feeder_combout $end
$var wire 1 Q rst~combout $end
$var wire 1 R Numberinst|R_n~5_combout $end
$var wire 1 S Key_0~combout $end
$var wire 1 T Timeinst|Y~32_combout $end
$var wire 1 U Timeinst|Y[18]~2_combout $end
$var wire 1 V Timeinst|Add0~1 $end
$var wire 1 W Timeinst|Add0~3 $end
$var wire 1 X Timeinst|Add0~4_combout $end
$var wire 1 Y Timeinst|Y~1_combout $end
$var wire 1 Z Timeinst|Add0~5 $end
$var wire 1 [ Timeinst|Add0~6_combout $end
$var wire 1 \ Timeinst|Y~3_combout $end
$var wire 1 ] Timeinst|Add0~7 $end
$var wire 1 ^ Timeinst|Add0~9 $end
$var wire 1 _ Timeinst|Add0~10_combout $end
$var wire 1 ` Timeinst|Y~5_combout $end
$var wire 1 a Timeinst|Add0~11 $end
$var wire 1 b Timeinst|Add0~12_combout $end
$var wire 1 c Timeinst|Y~6_combout $end
$var wire 1 d Timeinst|Add0~13 $end
$var wire 1 e Timeinst|Add0~14_combout $end
$var wire 1 f Timeinst|Y~7_combout $end
$var wire 1 g Timeinst|Add0~15 $end
$var wire 1 h Timeinst|Add0~16_combout $end
$var wire 1 i Timeinst|Y~8_combout $end
$var wire 1 j Timeinst|Add0~17 $end
$var wire 1 k Timeinst|Add0~18_combout $end
$var wire 1 l Timeinst|Y~9_combout $end
$var wire 1 m Timeinst|Add0~19 $end
$var wire 1 n Timeinst|Add0~20_combout $end
$var wire 1 o Timeinst|Y~10_combout $end
$var wire 1 p Timeinst|Add0~21 $end
$var wire 1 q Timeinst|Add0~22_combout $end
$var wire 1 r Timeinst|Y~11_combout $end
$var wire 1 s Timeinst|Add0~23 $end
$var wire 1 t Timeinst|Add0~25 $end
$var wire 1 u Timeinst|Add0~26_combout $end
$var wire 1 v Timeinst|Y~13_combout $end
$var wire 1 w Timeinst|Add0~27 $end
$var wire 1 x Timeinst|Add0~29 $end
$var wire 1 y Timeinst|Add0~31 $end
$var wire 1 z Timeinst|Add0~32_combout $end
$var wire 1 { Timeinst|Y~16_combout $end
$var wire 1 | Timeinst|Add0~33 $end
$var wire 1 } Timeinst|Add0~34_combout $end
$var wire 1 ~ Timeinst|Y~17_combout $end
$var wire 1 !! Timeinst|Add0~35 $end
$var wire 1 "! Timeinst|Add0~36_combout $end
$var wire 1 #! Timeinst|Y~18_combout $end
$var wire 1 $! Timeinst|Add0~37 $end
$var wire 1 %! Timeinst|Add0~38_combout $end
$var wire 1 &! Timeinst|Y~19_combout $end
$var wire 1 '! Timeinst|Add0~39 $end
$var wire 1 (! Timeinst|Add0~41 $end
$var wire 1 )! Timeinst|Add0~43 $end
$var wire 1 *! Timeinst|Add0~44_combout $end
$var wire 1 +! Timeinst|Y~22_combout $end
$var wire 1 ,! Timeinst|Add0~45 $end
$var wire 1 -! Timeinst|Add0~46_combout $end
$var wire 1 .! Timeinst|Y~23_combout $end
$var wire 1 /! Timeinst|Add0~47 $end
$var wire 1 0! Timeinst|Add0~48_combout $end
$var wire 1 1! Timeinst|Y~24_combout $end
$var wire 1 2! Timeinst|Add0~49 $end
$var wire 1 3! Timeinst|Add0~50_combout $end
$var wire 1 4! Timeinst|Y~25_combout $end
$var wire 1 5! Timeinst|t~7_combout $end
$var wire 1 6! Timeinst|Add0~40_combout $end
$var wire 1 7! Timeinst|Y~20_combout $end
$var wire 1 8! Timeinst|Add0~42_combout $end
$var wire 1 9! Timeinst|Y~21_combout $end
$var wire 1 :! Timeinst|t~6_combout $end
$var wire 1 ;! Timeinst|t~8_combout $end
$var wire 1 <! Timeinst|t~2_combout $end
$var wire 1 =! Timeinst|Y~4_combout $end
$var wire 1 >! Timeinst|t~1_combout $end
$var wire 1 ?! Timeinst|Add0~24_combout $end
$var wire 1 @! Timeinst|Y~12_combout $end
$var wire 1 A! Timeinst|t~3_combout $end
$var wire 1 B! Timeinst|t~5_combout $end
$var wire 1 C! Timeinst|Y[30]~0_combout $end
$var wire 1 D! Timeinst|Add0~51 $end
$var wire 1 E! Timeinst|Add0~53 $end
$var wire 1 F! Timeinst|Add0~55 $end
$var wire 1 G! Timeinst|Add0~56_combout $end
$var wire 1 H! Timeinst|Y~28_combout $end
$var wire 1 I! Timeinst|Add0~57 $end
$var wire 1 J! Timeinst|Add0~58_combout $end
$var wire 1 K! Timeinst|Y~29_combout $end
$var wire 1 L! Timeinst|Add0~59 $end
$var wire 1 M! Timeinst|Add0~61 $end
$var wire 1 N! Timeinst|Add0~62_combout $end
$var wire 1 O! Timeinst|Y[31]~31_combout $end
$var wire 1 P! Timeinst|Add0~52_combout $end
$var wire 1 Q! Timeinst|Y~26_combout $end
$var wire 1 R! Timeinst|Add0~54_combout $end
$var wire 1 S! Timeinst|Y~27_combout $end
$var wire 1 T! Timeinst|t~9_combout $end
$var wire 1 U! Timeinst|t~10_combout $end
$var wire 1 V! Timeinst|t~0_combout $end
$var wire 1 W! Timeinst|t~11_combout $end
$var wire 1 X! Timeinst|t~regout $end
$var wire 1 Y! Keyinst|Z~0_combout $end
$var wire 1 Z! Key_2~combout $end
$var wire 1 [! Keyinst|Z[0]~1_combout $end
$var wire 1 \! Keyinst|Add0~0_combout $end
$var wire 1 ]! Keyinst|Z~3_combout $end
$var wire 1 ^! Keyinst|Z~2_combout $end
$var wire 1 _! Keyinst|Equal0~0_combout $end
$var wire 1 `! Keyinst|Z~4_combout $end
$var wire 1 a! Numberinst|always0~0_combout $end
$var wire 1 b! Randominst|R~1_combout $end
$var wire 1 c! Randominst|R~5_combout $end
$var wire 1 d! Randominst|R~7_combout $end
$var wire 1 e! Randominst|R~6_combout $end
$var wire 1 f! Randominst|R~3_combout $end
$var wire 1 g! Randominst|R~2_combout $end
$var wire 1 h! Randominst|R~4_combout $end
$var wire 1 i! Randominst|R_b~10_combout $end
$var wire 1 j! Randominst|R_b[2]~1_combout $end
$var wire 1 k! Randominst|R_b[2]~2_combout $end
$var wire 1 l! Randominst|R_b[2]~3_combout $end
$var wire 1 m! Randominst|R_b[2]~4_combout $end
$var wire 1 n! Numberinst|R_n~7_combout $end
$var wire 1 o! Numberinst|always0~3_combout $end
$var wire 1 p! Numberinst|a[1]~0_combout $end
$var wire 1 q! Keyinst|start~0_combout $end
$var wire 1 r! Keyinst|start~regout $end
$var wire 1 s! Randominst|R_b~11_combout $end
$var wire 1 t! Numberinst|a~1_combout $end
$var wire 1 u! Numberinst|Equal4~3_combout $end
$var wire 1 v! Numberinst|R_n~0_combout $end
$var wire 1 w! Randominst|R_b~0_combout $end
$var wire 1 x! Numberinst|Equal4~0_combout $end
$var wire 1 y! Numberinst|R_n~9_combout $end
$var wire 1 z! Randominst|R_b~9_combout $end
$var wire 1 {! Numberinst|R_n~8_combout $end
$var wire 1 |! Randominst|R_b~8_combout $end
$var wire 1 }! Numberinst|Equal4~2_combout $end
$var wire 1 ~! Numberinst|Equal4~4_combout $end
$var wire 1 !" Numberinst|always0~1_combout $end
$var wire 1 "" Numberinst|b[7]~0_combout $end
$var wire 1 #" Numberinst|Equal5~4_combout $end
$var wire 1 $" Randominst|R_b~7_combout $end
$var wire 1 %" Numberinst|R_n~10_combout $end
$var wire 1 &" Numberinst|Equal5~1_combout $end
$var wire 1 '" Randominst|R_b~6_combout $end
$var wire 1 (" Numberinst|R_n~11_combout $end
$var wire 1 )" Randominst|R_b~5_combout $end
$var wire 1 *" Numberinst|Equal5~0_combout $end
$var wire 1 +" Numberinst|Equal5~2_combout $end
$var wire 1 ," Numberinst|R_n[6]~1_combout $end
$var wire 1 -" Numberinst|always0~2_combout $end
$var wire 1 ." Numberinst|c[6]~0_combout $end
$var wire 1 /" Numberinst|Equal6~2_combout $end
$var wire 1 0" Numberinst|Equal6~1_combout $end
$var wire 1 1" Numberinst|Equal6~3_combout $end
$var wire 1 2" Numberinst|Equal6~4_combout $end
$var wire 1 3" Numberinst|R_n[6]~2_combout $end
$var wire 1 4" Numberinst|R_n[6]~3_combout $end
$var wire 1 5" Numberinst|R_n[6]~4_combout $end
$var wire 1 6" Numberinst|R_n~6_combout $end
$var wire 1 7" Bcdinst|d_0~3_combout $end
$var wire 1 8" Bcdinst|d_0~2_combout $end
$var wire 1 9" Bcdinst|d_0~7_combout $end
$var wire 1 :" Bcdinst|d_0~6_combout $end
$var wire 1 ;" Bcdinst|d_0~5_combout $end
$var wire 1 <" Bcdinst|d_0~10_combout $end
$var wire 1 =" Bcdinst|d_0~8_combout $end
$var wire 1 >" Bcdinst|d_0~11_combout $end
$var wire 1 ?" Bcdinst|d_0~12_combout $end
$var wire 1 @" Bcdinst|d_0~13_combout $end
$var wire 1 A" Bcdinst|d_0~1_combout $end
$var wire 1 B" Bcd7seg_0inst_0|WideOr6~0_combout $end
$var wire 1 C" Bcd7seg_0inst_0|WideOr5~0_combout $end
$var wire 1 D" Bcd7seg_0inst_0|WideOr4~0_combout $end
$var wire 1 E" Bcd7seg_0inst_0|WideOr3~0_combout $end
$var wire 1 F" Bcd7seg_0inst_0|WideOr2~0_combout $end
$var wire 1 G" Bcd7seg_0inst_0|WideOr1~0_combout $end
$var wire 1 H" Bcd7seg_0inst_0|WideOr0~0_combout $end
$var wire 1 I" Bcdinst|d_0~14_combout $end
$var wire 1 J" Bcdinst|d_0~15_combout $end
$var wire 1 K" Bcdinst|d_0~16_combout $end
$var wire 1 L" Bcdinst|d_1~1_combout $end
$var wire 1 M" Bcdinst|d_1~3_combout $end
$var wire 1 N" Bcdinst|d_1~0_combout $end
$var wire 1 O" Bcdinst|d_1~2_combout $end
$var wire 1 P" Bcd7seg_1inst_1|hex5[0]~0_combout $end
$var wire 1 Q" Bcd7seg_1inst_1|hex5[1]~1_combout $end
$var wire 1 R" Bcd7seg_1inst_1|Decoder0~0_combout $end
$var wire 1 S" Bcd7seg_1inst_1|WideOr3~0_combout $end
$var wire 1 T" Bcd7seg_1inst_1|WideOr2~0_combout $end
$var wire 1 U" Bcd7seg_1inst_1|WideOr1~0_combout $end
$var wire 1 V" Bcd7seg_1inst_1|WideOr0~0_combout $end
$var wire 1 W" Keyinst|Z [3] $end
$var wire 1 X" Keyinst|Z [2] $end
$var wire 1 Y" Keyinst|Z [1] $end
$var wire 1 Z" Keyinst|Z [0] $end
$var wire 1 [" Timeinst|Y [31] $end
$var wire 1 \" Timeinst|Y [30] $end
$var wire 1 ]" Timeinst|Y [29] $end
$var wire 1 ^" Timeinst|Y [28] $end
$var wire 1 _" Timeinst|Y [27] $end
$var wire 1 `" Timeinst|Y [26] $end
$var wire 1 a" Timeinst|Y [25] $end
$var wire 1 b" Timeinst|Y [24] $end
$var wire 1 c" Timeinst|Y [23] $end
$var wire 1 d" Timeinst|Y [22] $end
$var wire 1 e" Timeinst|Y [21] $end
$var wire 1 f" Timeinst|Y [20] $end
$var wire 1 g" Timeinst|Y [19] $end
$var wire 1 h" Timeinst|Y [18] $end
$var wire 1 i" Timeinst|Y [17] $end
$var wire 1 j" Timeinst|Y [16] $end
$var wire 1 k" Timeinst|Y [15] $end
$var wire 1 l" Timeinst|Y [14] $end
$var wire 1 m" Timeinst|Y [13] $end
$var wire 1 n" Timeinst|Y [12] $end
$var wire 1 o" Timeinst|Y [11] $end
$var wire 1 p" Timeinst|Y [10] $end
$var wire 1 q" Timeinst|Y [9] $end
$var wire 1 r" Timeinst|Y [8] $end
$var wire 1 s" Timeinst|Y [7] $end
$var wire 1 t" Timeinst|Y [6] $end
$var wire 1 u" Timeinst|Y [5] $end
$var wire 1 v" Timeinst|Y [4] $end
$var wire 1 w" Timeinst|Y [3] $end
$var wire 1 x" Timeinst|Y [2] $end
$var wire 1 y" Timeinst|Y [1] $end
$var wire 1 z" Timeinst|Y [0] $end
$var wire 1 {" Randominst|R_b [7] $end
$var wire 1 |" Randominst|R_b [6] $end
$var wire 1 }" Randominst|R_b [5] $end
$var wire 1 ~" Randominst|R_b [4] $end
$var wire 1 !# Randominst|R_b [3] $end
$var wire 1 "# Randominst|R_b [2] $end
$var wire 1 ## Randominst|R_b [1] $end
$var wire 1 $# Randominst|R_b [0] $end
$var wire 1 %# Randominst|R [7] $end
$var wire 1 &# Randominst|R [6] $end
$var wire 1 '# Randominst|R [5] $end
$var wire 1 (# Randominst|R [4] $end
$var wire 1 )# Randominst|R [3] $end
$var wire 1 *# Randominst|R [2] $end
$var wire 1 +# Randominst|R [1] $end
$var wire 1 ,# Randominst|R [0] $end
$var wire 1 -# Numberinst|c [7] $end
$var wire 1 .# Numberinst|c [6] $end
$var wire 1 /# Numberinst|c [5] $end
$var wire 1 0# Numberinst|c [4] $end
$var wire 1 1# Numberinst|c [3] $end
$var wire 1 2# Numberinst|c [2] $end
$var wire 1 3# Numberinst|c [1] $end
$var wire 1 4# Numberinst|c [0] $end
$var wire 1 5# Numberinst|b [7] $end
$var wire 1 6# Numberinst|b [6] $end
$var wire 1 7# Numberinst|b [5] $end
$var wire 1 8# Numberinst|b [4] $end
$var wire 1 9# Numberinst|b [3] $end
$var wire 1 :# Numberinst|b [2] $end
$var wire 1 ;# Numberinst|b [1] $end
$var wire 1 <# Numberinst|b [0] $end
$var wire 1 =# Numberinst|a [7] $end
$var wire 1 ># Numberinst|a [6] $end
$var wire 1 ?# Numberinst|a [5] $end
$var wire 1 @# Numberinst|a [4] $end
$var wire 1 A# Numberinst|a [3] $end
$var wire 1 B# Numberinst|a [2] $end
$var wire 1 C# Numberinst|a [1] $end
$var wire 1 D# Numberinst|a [0] $end
$var wire 1 E# Numberinst|R_n [7] $end
$var wire 1 F# Numberinst|R_n [6] $end
$var wire 1 G# Numberinst|R_n [5] $end
$var wire 1 H# Numberinst|R_n [4] $end
$var wire 1 I# Numberinst|R_n [3] $end
$var wire 1 J# Numberinst|R_n [2] $end
$var wire 1 K# Numberinst|R_n [1] $end
$var wire 1 L# Numberinst|R_n [0] $end
$var wire 1 M# Bcdinst|d_1 [3] $end
$var wire 1 N# Bcdinst|d_1 [2] $end
$var wire 1 O# Bcdinst|d_1 [1] $end
$var wire 1 P# Bcdinst|d_1 [0] $end
$var wire 1 Q# Bcdinst|d_0 [3] $end
$var wire 1 R# Bcdinst|d_0 [2] $end
$var wire 1 S# Bcdinst|d_0 [1] $end
$var wire 1 T# Bcdinst|d_0 [0] $end
$upscope $end
$upscope $end
$enddefinitions $end
#0
$dumpvars
0!
0"
0#
0$
0+
0*
0)
0(
0'
0&
1%
02
01
00
0/
0.
0-
1,
x3
04
15
x6
17
18
19
0:
0;
0<
0=
0>
0?
0@
1A
0B
1C
1D
1E
1F
0G
0H
0I
0J
0K
0L
0M
0N
0O
0P
0Q
0R
0S
0T
1U
0V
1W
0X
0Y
0Z
0[
0\
1]
0^
0_
0`
1a
0b
0c
0d
0e
0f
1g
0h
0i
0j
0k
0l
1m
0n
0o
0p
0q
0r
1s
0t
0u
0v
1w
0x
1y
0z
0{
0|
0}
0~
1!!
0"!
0#!
0$!
0%!
0&!
1'!
0(!
1)!
0*!
0+!
0,!
0-!
0.!
1/!
00!
01!
02!
03!
04!
15!
06!
07!
08!
09!
1:!
1;!
1<!
0=!
1>!
0?!
0@!
1A!
1B!
1C!
1D!
0E!
1F!
0G!
0H!
0I!
0J!
0K!
1L!
0M!
0N!
0O!
0P!
0Q!
0R!
0S!
1T!
1U!
0V!
0W!
0X!
1Y!
0Z!
0[!
0\!
0]!
0^!
1_!
0`!
1a!
0b!
0c!
0d!
1e!
0f!
1g!
1h!
0i!
0j!
0k!
0l!
1m!
0n!
1o!
1p!
0q!
0r!
0s!
0t!
1u!
0v!
0w!
1x!
0y!
0z!
0{!
0|!
1}!
1~!
0!"
0""
1#"
0$"
0%"
0&"
0'"
0("
0)"
1*"
1+"
0,"
0-"
0."
1/"
10"
11"
12"
13"
14"
15"
06"
17"
08"
19"
0:"
0;"
0<"
0="
0>"
0?"
0@"
0A"
0B"
0C"
0D"
0E"
0F"
0G"
0H"
1I"
1J"
1K"
0L"
0M"
0N"
0O"
0P"
0Q"
0R"
0S"
0T"
0U"
0V"
0Z"
0Y"
0X"
0W"
0z"
0y"
0x"
0w"
0v"
0u"
0t"
0s"
0r"
0q"
0p"
0o"
0n"
0m"
0l"
0k"
0j"
0i"
0h"
0g"
0f"
0e"
0d"
0c"
0b"
0a"
0`"
0_"
0^"
0]"
0\"
0["
0$#
0##
0"#
0!#
0~"
0}"
0|"
0{"
0,#
0+#
0*#
0)#
0(#
0'#
0&#
0%#
04#
03#
02#
01#
00#
0/#
0.#
0-#
0<#
0;#
0:#
09#
08#
07#
06#
05#
0D#
0C#
0B#
0A#
0@#
0?#
0>#
0=#
0L#
0K#
0J#
0I#
0H#
0G#
0F#
0E#
0P#
0O#
0N#
0M#
0T#
0S#
0R#
0Q#
$end
#10000
1#
1L
1M
03
1&#
1'#
1)#
1l!
1b!
0h!
1f!
#20000
0#
0L
0M
13
#30000
1#
1L
1M
03
0&#
1(#
1%#
0l!
1h!
0f!
1c!
1G
#40000
0#
0L
0M
13
#50000
1"
1#
1Z!
1L
1M
03
1q!
1&#
0(#
1+#
1,#
1l!
0b!
0g!
1d!
0c!
#60000
0#
0L
0M
13
#70000
0"
1#
0Z!
1L
1M
03
0q!
1r!
0'#
1*#
0+#
0%#
1'"
1s!
1q!
0m!
1i!
0l!
1j!
0e!
0d!
1g!
1f!
1c!
1b!
0G
#80000
0#
0L
0M
13
#90000
1#
1L
1M
03
1'#
1(#
0)#
0*#
1+#
1%#
0,#
1z!
1l!
1|!
1$"
1k!
0'"
0j!
1e!
1)"
1d!
0s!
1m!
0b!
1G
1w!
0m!
#100000
0#
0L
0M
13
#110000
1#
1L
1M
03
1)#
1*#
0%#
1,#
0$"
0k!
1'"
1j!
0e!
1s!
0h!
0g!
1b!
0G
0w!
#120000
0#
0L
0M
13
#130000
1#
1L
1M
03
0&#
0'#
0)#
1%#
0,#
0l!
0j!
0i!
0z!
1$"
0s!
1g!
1G
1w!
1m!
#140000
0#
0L
0M
13
#150000
1!
1#
1S
1L
1M
03
1[!
1V!
0U
1W!
1##
1"#
1!#
1~"
1$#
1'#
1,#
0*"
0x!
1R
0E
00"
0+"
1("
0C
1&"
1%"
0/"
0}!
1y!
0D
1v!
1z!
1h!
0w!
0c!
0~!
02"
1P
1O
1N
1,"
#160000
0#
0L
0M
13
#170000
0!
1#
0S
1L
1M
03
0[!
0V!
1U
0W!
1L#
1I#
1H#
1K#
1}"
1@#
0$#
1D#
1C#
1&#
0+#
1Z"
1X!
1B#
1A#
1J#
1A"
09"
07"
1>"
1{!
0v!
1l!
1j!
1i!
0b!
0)"
0d!
03"
1!"
0p!
1`!
0Y!
05"
1V!
1:
1C
0A
1="
1:"
0N
0m!
1k!
1W!
1K
1?"
1N"
0>"
0K"
1A
1L"
0?"
#180000
0#
0L
0M
13
#190000
1#
1L
1M
03
1P#
1O#
1T#
0*#
0%#
1z"
1V"
1U"
1T"
1G"
1F"
1E"
1B"
0'"
0j!
1e!
1s!
0h!
0g!
0f!
1c!
1b!
0G
1V
0:
0k!
1;
0K
1-
1.
1&
1'
1(
1+
0,
1T
#200000
0#
0L
0M
13
#210000
1#
1L
1M
03
0&#
0'#
0(#
1)#
1+#
1%#
1y"
0z"
0,#
0l!
0i!
0z!
0|!
0$"
1)"
1d!
0s!
1G
0W
0;
0V
1:
1w!
1m!
1X
0T
1W
1;
1K
1Y
0X
1T
0Y
#220000
0#
0L
0M
13
#230000
1#
1L
1M
03
0"#
0!#
0~"
0}"
1$#
1*#
1z"
1,#
10"
0("
0C
0&"
0%"
1/"
0y!
1D
0{!
1x!
1v!
1'"
0e!
1V
0:
0w!
0c!
0P
0O
1N
0W
0;
0K
1X
0T
1Y
#240000
0#
0L
0M
13
#250000
1#
1L
1M
03
1"#
0$#
0)#
0+#
1x"
0y"
0z"
00"
1("
0x!
0v!
1$"
1f!
0)"
0d!
0>!
1Z
0X
1W
1;
0V
1:
1P
1O
0N
0B!
1[
0Y
0Z
1X
1T
0;
1K
0W!
0C!
1\
0[
1Y
0T
0\
0Y
0K
#260000
0#
0L
0M
13
#270000
1#
1L
1M
03
0##
1!#
1(#
0*#
0X!
0x"
1*"
0R
1E
1&"
1%"
1C
1|!
1g!
0'"
1j!
1e!
15"
1""
0V!
0:
1>!
0X
1B!
1C!
#280000
0#
0L
0M
13
#290000
1#
1L
1M
03
0L#
0H#
0K#
1:#
0"#
19#
1~"
1'#
1)#
0A"
17"
0N"
1@"
0("
0C
0&"
0/"
1}!
1y!
0D
1z!
1h!
0$"
1k!
0f!
0:"
0P
0O
1K"
0A
0L"
1N"
0@"
1>"
#300000
0#
0L
0M
13
#310000
1#
1L
1M
03
0O#
0T#
1S#
1H#
0:#
0!#
1}"
1&#
0(#
18#
0J#
0V"
1S"
1P"
1H"
0F"
0E"
1D"
0B"
07"
1+"
10"
1&"
0%"
0}!
1{!
1l!
0k!
0j!
1i!
0b!
0|!
0g!
1A
1:"
0+"
0m!
0N"
1@"
0>"
1/
12
0'
0(
1)
0+
1,
0%
0K"
0="
0A
1L"
0@"
1?"
#320000
0#
0L
0M
13
#330000
1#
1L
1M
03
0P#
1O#
1R#
0S#
0I#
1G#
09#
0'#
0%#
17#
1V"
0T"
0S"
1R"
0P"
0G"
1F"
1E"
0D"
1B"
19"
1@
0&"
0z!
0l!
1s!
1g!
1f!
1c!
1b!
0G
1D
1K"
1<"
1A
0J"
0:"
09"
1+"
0.
0/
10
02
0&
1'
1(
0)
1+
0,
1O"
0L"
1N"
1>"
1="
0<"
0,"
0N"
1@"
0?"
0>"
#340000
0#
0L
0M
13
#350000
1!
1#
1S
1L
1M
03
1[!
1V!
0U
1W!
1N#
0O#
1Q#
0R#
1'#
1(#
1+#
1%#
0,#
0U"
1T"
1S"
0R"
1P"
0F"
0E"
0B"
1z!
1l!
1|!
1)"
1d!
0s!
1m!
0f!
0b!
1G
1w!
0m!
0-
1.
1/
00
12
0'
0(
0+
#360000
0#
0L
0M
13
#370000
0!
1#
0S
1L
1M
03
0[!
0V!
1U
0W!
0(#
1*#
0%#
1Y"
0Z"
1X!
1,#
0|!
1'"
1j!
0e!
1s!
0h!
1f!
1b!
0G
0!"
0o!
1Y!
05"
0""
1V!
1:
0w!
04"
1W!
1K
#380000
0#
0L
0M
13
#390000
1#
1L
1M
03
0&#
1(#
0)#
1%#
1z"
0,#
0l!
0j!
0i!
1|!
1$"
0s!
1h!
1G
1V
0:
1w!
1m!
1;
0K
1T
#400000
0#
0L
0M
13
#410000
1#
1L
1M
03
1##
1"#
1!#
1$#
1&#
1y"
0z"
1,#
0*"
1x!
1R
0E
00"
0+"
1("
1C
1&"
1%"
1v!
1l!
1k!
1j!
1i!
0b!
0W
0;
0V
1:
0w!
0c!
1,"
1P
1O
1N
0m!
1X
0T
1W
1;
1K
1-"
1Y
0X
1T
14"
0Y
#420000
0#
0L
0M
13
#430000
1#
1L
1M
03
0+#
0%#
1z"
0)"
0d!
1s!
0h!
0g!
0f!
1c!
1b!
0G
1V
0:
0W
0;
0K
1X
0T
1Y
#440000
0#
0L
0M
13
#450000
1#
1L
1M
03
0&#
0'#
0(#
0*#
1+#
1%#
1x"
0y"
0z"
0,#
0k!
0j!
0i!
0z!
0|!
0'"
1e!
1)"
1d!
0s!
1f!
1G
0>!
1Z
0X
1W
1;
0V
1:
1w!
0l!
0B!
1[
0Y
0Z
1X
1T
0;
1K
1m!
0W!
0C!
1\
0[
1Y
0T
0\
0Y
0K
#460000
0#
0L
0M
13
#470000
1#
1L
1M
03
0"#
0~"
0}"
1(#
1)#
1*#
0X!
0x"
1,#
0("
0C
1/"
0y!
0D
0{!
1|!
1g!
0$"
0f!
1'"
0e!
15"
1."
0V!
0:
1>!
0X
0w!
0c!
0P
0O
1B!
1C!
#480000
0#
0L
0M
13
#490000
1#
1L
1M
03
1L#
1I#
0G#
0H#
1K#
11#
1"#
0!#
1~"
0$#
1'#
0(#
0)#
0+#
14#
13#
1A"
1:"
19"
17"
0@
1N"
0@"
1("
0&"
0%"
0/"
1}!
1y!
0x!
0v!
1z!
1h!
0|!
0g!
1$"
1f!
0)"
0d!
0="
1<"
1J"
0:"
09"
1P
1O
0N
1@"
0O"
1="
0<"
0@"
#500000
0#
0L
0M
13
#510000
1#
1L
1M
03
0N#
1P#
1T#
0L#
0Q#
0I#
1H#
01#
10#
0##
1!#
0~"
1}"
1&#
0'#
1(#
0*#
12#
04#
1J#
0V"
1U"
0H"
1G"
1F"
1E"
1B"
0A"
19"
07"
1*"
0R
1&"
1%"
1C
0}!
0y!
1{!
1l!
1i!
0b!
0z!
0h!
1|!
1g!
0'"
1e!
0A
0="
1:"
0m!
1?"
1-
1&
1'
1(
1+
1,
1%
0N"
1>"
0K"
1A
1L"
0?"
#520000
0#
0L
0M
13
#530000
1#
1L
1M
03
0P#
1O#
0T#
1S#
1I#
1G#
0H#
0K#
11#
1/#
00#
0&#
1'#
1)#
0%#
03#
1V"
0T"
0S"
1R"
0P"
1H"
0F"
0E"
1D"
0B"
09"
17"
1@
0>"
10"
1/"
0l!
1j!
0i!
1z!
0$"
1s!
0g!
1c!
0G
1E
1="
0J"
0:"
19"
12"
1k!
0.
0/
10
02
0'
0(
1)
0+
0,
0%
1@"
1O"
1K"
0="
0A
0L"
0@"
1?"
#540000
0#
0L
0M
13
#550000
1!
1#
1S
1L
1M
03
1[!
1V!
0U
1W!
1N#
0O#
1R#
0S#
0'#
1+#
0,#
0U"
1T"
1S"
0R"
1P"
0G"
1F"
1E"
0D"
1B"
0z!
1h!
1)"
0k!
1d!
1w!
0j!
0c!
0-
1.
1/
00
12
0&
1'
1(
0)
1+
#560000
0#
0L
0M
13
#570000
0!
1#
0S
1L
1M
03
0[!
0V!
1U
0W!
1&#
1*#
0+#
1Z"
1X!
1l!
1j!
1i!
1b!
1'"
0e!
0)"
0d!
0-"
0`!
0_!
1\!
0Y!
05"
0."
1V!
1:
04"
1W!
1K
#580000
0#
0L
0M
13
#590000
1#
1L
1M
03
0)#
0*#
1%#
1z"
1$"
1k!
0'"
0j!
1e!
0s!
0h!
1g!
1c!
0b!
1G
1V
0:
0k!
1;
0K
1T
#600000
0#
0L
0M
13
#610000
1#
1L
1M
03
0&#
1'#
1)#
1+#
0%#
1y"
0z"
1,#
0l!
1j!
0i!
1z!
0$"
1)"
1d!
1s!
0g!
0G
0W
0;
0V
1:
0w!
1X
0T
1W
1;
1K
1Y
0X
1T
0Y
#620000
0#
0L
0M
13
#630000
1#
1L
1M
03
0'#
1*#
1z"
0,#
0z!
1h!
1'"
0j!
0e!
1V
0:
1w!
0c!
0W
0;
0K
1X
0T
1Y
#640000
0#
0L
0M
13
#650000
1#
1L
1M
03
1&#
0)#
0+#
1x"
0y"
0z"
1l!
1j!
1i!
1b!
1$"
0f!
0)"
0d!
0>!
1Z
0X
1W
1;
0V
1:
1k!
0B!
1[
0Y
0Z
1X
1T
0;
1K
0W!
0C!
1\
0[
1Y
0T
0\
0Y
0K
#660000
0#
0L
0M
13
#670000
1#
1L
1M
03
0(#
0*#
1%#
0X!
0x"
0|!
0'"
0j!
1e!
0s!
0h!
1f!
1c!
0b!
1G
0V!
0:
1>!
0X
0k!
1B!
0l!
1C!
1m!
#680000
0#
0L
0M
13
