1.1. Control/control/simulation/qsim/control.msim.vcd
$comment
	File created using the following command:
		vcd file control.msim.vcd -direction
$end
$date
	Sat Nov 21 22:19:44 2020
$end
$version
	ModelSim Version 10.1d
$end
$timescale
	1ps
$end
$scope module control_vlg_vec_tst $end
$var reg 1 ! Key_0 $end
$var reg 1 " Key_2 $end
$var reg 1 # clk $end
$var reg 1 $ rst $end
$var wire 1 % hex4 [6] $end
$var wire 1 & hex4 [5] $end
$var wire 1 ' hex4 [4] $end
$var wire 1 ( hex4 [3] $end
$var wire 1 ) hex4 [2] $end
$var wire 1 * hex4 [1] $end
$var wire 1 + hex4 [0] $end
$var wire 1 , hex5 [6] $end
$var wire 1 - hex5 [5] $end
$var wire 1 . hex5 [4] $end
$var wire 1 / hex5 [3] $end
$var wire 1 0 hex5 [2] $end
$var wire 1 1 hex5 [1] $end
$var wire 1 2 hex5 [0] $end
$var wire 1 3 sampler $end
$scope module i1 $end
$var wire 1 4 gnd $end
$var wire 1 5 vcc $end
$var wire 1 6 unknown $end
$var tri1 1 7 devclrn $end
$var tri1 1 8 devpor $end
$var tri1 1 9 devoe $end
$var wire 1 : countinst|cnt_1[3]~3_combout $end
$var wire 1 ; countinst|Add0~1_combout $end
$var wire 1 < clk~combout $end
$var wire 1 = clk~clkctrl_outclk $end
$var wire 1 > rst~combout $end
$var wire 1 ? countinst|cnt_0~0_combout $end
$var wire 1 @ Key_2~combout $end
$var wire 1 A countinst|start~0_combout $end
$var wire 1 B countinst|start~regout $end
$var wire 1 C countinst|cnt_0[3]~1_combout $end
$var wire 1 D countinst|Add1~1_combout $end
$var wire 1 E countinst|cnt_0~3_combout $end
$var wire 1 F countinst|Equal2~0_combout $end
$var wire 1 G countinst|Add1~0_combout $end
$var wire 1 H countinst|cnt_0~2_combout $end
$var wire 1 I countinst|cnt_1[0]~0_combout $end
$var wire 1 J countinst|cnt_1[0]~1_combout $end
$var wire 1 K countinst|always1~1_combout $end
$var wire 1 L countinst|cnt_1[3]~4_combout $end
$var wire 1 M countinst|cnt_1[3]~2_combout $end
$var wire 1 N countinst|cnt_1[1]~5_combout $end
$var wire 1 O countinst|always1~0_combout $end
$var wire 1 P countinst|always1~2_combout $end
$var wire 1 Q countinst|Add1~2_combout $end
$var wire 1 R countinst|cnt_0~4_combout $end
$var wire 1 S Bcd7seg_0inst_0|WideOr6~0_combout $end
$var wire 1 T Bcd7seg_0inst_0|WideOr5~0_combout $end
$var wire 1 U Bcd7seg_0inst_0|WideOr4~0_combout $end
$var wire 1 V Bcd7seg_0inst_0|WideOr3~0_combout $end
$var wire 1 W Bcd7seg_0inst_0|WideOr2~0_combout $end
$var wire 1 X Bcd7seg_0inst_0|WideOr1~0_combout $end
$var wire 1 Y Bcd7seg_0inst_0|WideOr0~0_combout $end
$var wire 1 Z countinst|cnt_1[3]~7_combout $end
$var wire 1 [ countinst|Add0~0_combout $end
$var wire 1 \ countinst|cnt_1[2]~6_combout $end
$var wire 1 ] Bcd7seg_1inst_1|hex5[0]~0_combout $end
$var wire 1 ^ Bcd7seg_1inst_1|hex5[1]~1_combout $end
$var wire 1 _ Bcd7seg_1inst_1|Decoder0~0_combout $end
$var wire 1 ` Bcd7seg_1inst_1|WideOr3~0_combout $end
$var wire 1 a Bcd7seg_1inst_1|WideOr2~0_combout $end
$var wire 1 b Bcd7seg_1inst_1|WideOr1~0_combout $end
$var wire 1 c Bcd7seg_1inst_1|WideOr0~0_combout $end
$var wire 1 d countinst|cnt_0 [3] $end
$var wire 1 e countinst|cnt_0 [2] $end
$var wire 1 f countinst|cnt_0 [1] $end
$var wire 1 g countinst|cnt_0 [0] $end
$var wire 1 h countinst|cnt_1 [3] $end
$var wire 1 i countinst|cnt_1 [2] $end
$var wire 1 j countinst|cnt_1 [1] $end
$var wire 1 k countinst|cnt_1 [0] $end
$upscope $end
$upscope $end
$enddefinitions $end
#0
$dumpvars
0!
0"
0#
0$
0+
0*
0)
0(
0'
0&
1%
02
01
00
0/
0.
0-
1,
x3
04
15
x6
17
18
19
0:
0;
0<
0=
0>
1?
0@
0A
0B
0C
0D
0E
0F
0G
0H
0I
0J
1K
0L
1M
0N
1O
1P
0Q
0R
0S
0T
0U
0V
0W
0X
0Y
0Z
0[
0\
0]
0^
0_
0`
0a
0b
0c
0g
0f
0e
0d
0k
0j
0i
0h
$end
#10000
1#
1<
1=
03
#20000
0#
0<
0=
13
#30000
1#
1<
1=
03
#40000
0#
0<
0=
13
#50000
1#
1<
1=
03
#60000
0#
0<
0=
13
#70000
1#
1<
1=
03
#80000
1"
0#
1@
0<
0=
13
1A
#90000
1#
1<
1=
03
1B
1C
1:
#100000
0#
0<
0=
13
#110000
1#
1<
1=
03
1g
1X
1W
1V
1S
1G
0?
1H
1&
1'
1(
1+
#120000
0#
0<
0=
13
#130000
1#
1<
1=
03
1f
0g
1Y
0W
0V
1U
0S
1?
0'
0(
1)
0+
0%
#140000
0#
0<
0=
13
#150000
1#
1<
1=
03
1g
1W
0U
0G
1D
0?
0H
1E
1'
0)
#160000
0#
0<
0=
13
#170000
1#
1<
1=
03
0f
1e
0g
0X
1V
1S
1?
0&
1(
1+
#180000
0#
0<
0=
13
#190000
1#
1<
1=
03
1g
0V
1T
0S
1G
0?
1H
0(
1*
0+
#200000
0#
0<
0=
13
#210000
1#
1<
1=
03
1f
0g
0W
1?
0'
#220000
0#
0<
0=
13
#230000
1#
1<
1=
03
1g
0Y
1X
1W
1V
0T
1Q
0G
0D
0?
1R
0H
0E
1&
1'
1(
0*
1%
#240000
0#
0<
0=
13
#250000
1#
1<
1=
03
1d
0f
0e
0g
1Y
0X
0W
0V
1?
0&
0'
0(
0%
#260000
0#
0<
0=
13
#270000
1#
1<
1=
03
1g
1W
1G
1F
0?
0R
0M
1L
1I
1'
1J
#280000
0#
0<
0=
13
#290000
1#
1<
1=
03
0d
1k
0g
0Y
0W
0Q
0F
1b
1a
1`
1]
1N
0I
0G
1?
1M
0L
1I
0J
0'
1-
1.
1/
12
1%
0N
1J
#300000
0#
0<
0=
13
#310000
1#
1<
1=
03
1g
1X
1W
1V
1S
1G
0?
1H
1&
1'
1(
1+
#320000
0#
0<
0=
13
#330000
1#
1<
1=
03
1f
0g
1Y
0W
0V
1U
0S
1?
0'
0(
1)
0+
0%
#340000
0#
0<
0=
13
#350000
1#
1<
1=
03
1g
1W
0U
0G
1D
0?
0H
1E
1'
0)
#360000
0#
0<
0=
13
#370000
1#
1<
1=
03
0f
1e
0g
0X
1V
1S
1?
0&
1(
1+
#380000
0#
0<
0=
13
#390000
1#
1<
1=
03
1g
0V
1T
0S
1G
0?
1H
0(
1*
0+
#400000
0#
0<
0=
13
#410000
1#
1<
1=
03
1f
0g
0W
1?
0'
#420000
0#
0<
0=
13
#430000
1#
1<
1=
03
1g
0Y
1X
1W
1V
0T
1Q
0G
0D
0?
1R
0H
0E
1&
1'
1(
0*
1%
#440000
0#
0<
0=
13
#450000
1#
1<
1=
03
1d
0f
0e
0g
1Y
0X
0W
0V
1?
0&
0'
0(
0%
#460000
0#
0<
0=
13
#470000
1#
1<
1=
03
1g
1W
1G
1F
0?
0R
0M
1L
0I
1'
1N
0J
#480000
0#
0<
0=
13
#490000
1#
1<
1=
03
0d
1j
0k
0g
0Y
0W
0Q
0F
1c
0a
0`
1_
0]
1I
0G
1?
1M
0L
0I
1J
0'
0.
0/
10
02
1%
0,
0J
#500000
0#
0<
0=
13
#510000
1#
1<
1=
03
1g
1X
1W
1V
1S
1G
0?
1H
1&
1'
1(
1+
#520000
0#
0<
0=
13
#530000
1#
1<
1=
03
1f
0g
1Y
0W
0V
1U
0S
1?
0'
0(
1)
0+
0%
#540000
0#
0<
0=
13
#550000
1#
1<
1=
03
1g
1W
0U
0O
0G
1D
0?
0H
1E
1'
0)
#560000
0#
0<
0=
13
#570000
1#
1<
1=
03
0f
1e
0g
0X
1V
1S
1O
1?
0&
1(
1+
#580000
0#
0<
0=
13
#590000
1#
1<
1=
03
1g
0V
1T
0S
1G
0?
1H
0(
1*
0+
#600000
0#
0<
0=
13
#610000
1#
1<
1=
03
1f
0g
0W
1?
0'
#620000
0#
0<
0=
13
#630000
1#
1<
1=
03
1g
0Y
1X
1W
1V
0T
1Q
0O
0G
0D
0?
1R
0H
0E
1&
1'
1(
0*
1%
#640000
0#
0<
0=
13
#650000
1#
1<
1=
03
1d
0f
0e
0g
1Y
0X
0W
0V
1O
1?
0&
0'
0(
0%
#660000
0#
0<
0=
13
#670000
1#
1<
1=
03
1g
1W
1G
1F
0?
0R
0M
1L
1I
1'
1J
#680000
0#
0<
0=
13
#690000
1#
1<
1=
03
0d
1k
0g
0Y
0W
0Q
0F
1a
0_
1[
0N
0I
0G
1?
1M
0L
1I
1\
0J
0'
1.
00
1%
0\
1N
1J
#700000
0#
0<
0=
13
#710000
1#
1<
1=
03
1g
1X
1W
1V
1S
1G
0?
1H
1&
1'
1(
1+
#720000
0#
0<
0=
13
#730000
1#
1<
1=
03
1f
0g
1Y
0W
0V
1U
0S
1?
0'
0(
1)
0+
0%
#740000
0#
0<
0=
13
#750000
1#
1<
1=
03
1g
1W
0U
0O
0G
1D
0?
0H
1E
1'
0)
#760000
0#
0<
0=
13
#770000
1#
1<
1=
03
0f
1e
0g
0X
1V
1S
1O
1?
0&
1(
1+
#780000
0#
0<
0=
13
#790000
1#
1<
1=
03
1g
0V
1T
0S
1G
0?
1H
0(
1*
0+
#800000
0#
0<
0=
13
#810000
1#
1<
1=
03
1f
0g
0W
1?
0'
#820000
0#
0<
0=
13
#830000
1#
1<
1=
03
1g
0Y
1X
1W
1V
0T
1Q
0O
0G
0D
0?
1R
0H
0E
1&
1'
1(
0*
1%
#840000
0#
0<
0=
13
#850000
1#
1<
1=
03
1d
0f
0e
0g
1Y
0X
0W
0V
1O
1?
0&
0'
0(
0%
#860000
0#
0<
0=
13
#870000
1#
1<
1=
03
1g
1W
1G
1F
0?
0R
0M
1L
0I
1'
1\
0N
0J
#880000
0#
0<
0=
13
#890000
1#
1<
1=
03
1i
0d
0j
0k
0g
0b
1`
1]
0Y
0W
0Q
0F
1I
0G
1?
1M
0L
0I
1J
0-
1/
12
0'
1%
0J
#900000
0#
0<
0=
13
#910000
1#
1<
1=
03
1g
1X
1W
1V
1S
1G
0?
1H
1&
1'
1(
1+
#920000
0#
0<
0=
13
#930000
1#
1<
1=
03
1f
0g
1Y
0W
0V
1U
0S
1?
0'
0(
1)
0+
0%
#940000
0#
0<
0=
13
#950000
1#
1<
1=
03
1g
1W
0U
0G
1D
0?
0H
1E
1'
0)
#960000
0#
0<
0=
13
#970000
1#
1<
1=
03
0f
1e
0g
0X
1V
1S
1?
0&
1(
1+
#980000
0#
0<
0=
13
#990000
1#
1<
1=
03
1g
0V
1T
0S
1G
0?
1H
0(
1*
0+
