Random Number Generator/Code/Key/simulation/qsim/Key.msim.vcd
$comment
	File created using the following command:
		vcd file Key.msim.vcd -direction
$end
$date
	Sat Feb 13 01:25:36 2021
$end
$version
	ModelSim Version 10.1d
$end
$timescale
	1ps
$end
$scope module Key_vlg_vec_tst $end
$var reg 1 ! Key_0 $end
$var reg 1 " Key_2 $end
$var reg 1 # clk $end
$var reg 1 $ rst $end
$var wire 1 % Z [3] $end
$var wire 1 & Z [2] $end
$var wire 1 ' Z [1] $end
$var wire 1 ( Z [0] $end
$var wire 1 ) start $end
$var wire 1 * sampler $end
$scope module i1 $end
$var wire 1 + gnd $end
$var wire 1 , vcc $end
$var wire 1 - unknown $end
$var tri1 1 . devclrn $end
$var tri1 1 / devpor $end
$var tri1 1 0 devoe $end
$var wire 1 1 clk~combout $end
$var wire 1 2 clk~clkctrl_outclk $end
$var wire 1 3 Key_0~combout $end
$var wire 1 4 Key_2~combout $end
$var wire 1 5 start~0_combout $end
$var wire 1 6 rst~combout $end
$var wire 1 7 Z~0_combout $end
$var wire 1 8 Z[0]~1_combout $end
$var wire 1 9 Z[0]~reg0_regout $end
$var wire 1 : Z~2_combout $end
$var wire 1 ; Z[1]~reg0_regout $end
$var wire 1 < Add0~0_combout $end
$var wire 1 = Z~4_combout $end
$var wire 1 > Z[3]~reg0_regout $end
$var wire 1 ? Z~3_combout $end
$var wire 1 @ Z[2]~reg0_regout $end
$var wire 1 A Equal0~0_combout $end
$var wire 1 B start~1_combout $end
$var wire 1 C start~reg0_regout $end
$upscope $end
$upscope $end
$enddefinitions $end
#0
$dumpvars
0!
0"
0#
0$
0(
0'
0&
0%
0)
x*
0+
1,
x-
1.
1/
10
01
02
03
04
05
06
17
08
09
0:
0;
0<
0=
0>
0?
0@
1A
0B
0C
$end
#20000
1#
11
12
0*
#40000
0#
01
02
1*
#60000
1"
1#
14
11
12
0*
15
1B
#80000
0#
01
02
1*
#100000
0"
1#
04
11
12
0*
05
0B
1C
1B
15
1)
#120000
0#
01
02
1*
#140000
1#
11
12
0*
#160000
0#
01
02
1*
#180000
1!
1#
13
11
12
0*
18
05
#200000
0#
01
02
1*
#220000
0!
1#
03
11
12
0*
08
15
19
1:
07
1(
#240000
0#
01
02
1*
#260000
1#
11
12
0*
#280000
0#
01
02
1*
#300000
1#
11
12
0*
#320000
0#
01
02
1*
#340000
1!
1#
13
11
12
0*
18
05
#360000
0#
01
02
1*
#380000
0!
1#
03
11
12
0*
08
15
1;
09
17
1'
0(
#400000
0#
01
02
1*
#420000
1#
11
12
0*
#440000
0#
01
02
1*
#460000
1#
11
12
0*
#480000
0#
01
02
1*
#500000
1#
11
12
0*
#520000
0#
01
02
1*
#540000
1!
1#
13
11
12
0*
18
05
#560000
0#
01
02
1*
#580000
0!
1#
03
11
12
0*
08
15
19
0A
1<
0:
07
1(
#600000
0#
01
02
1*
#620000
1#
11
12
0*
#640000
0#
01
02
1*
#660000
1#
11
12
0*
#680000
0#
01
02
1*
#700000
1!
1#
13
11
12
0*
18
05
0B
#720000
0#
01
02
1*
#740000
0!
1#
03
11
12
0*
08
15
1B
0C
0;
09
05
1A
0<
17
0)
0'
0(
0B
#760000
0#
01
02
1*
#780000
1#
11
12
0*
#800000
0#
01
02
1*
#820000
1#
11
12
0*
#840000
0#
01
02
1*
#860000
1#
11
12
0*
#880000
0#
01
02
1*
#900000
1#
11
12
0*
#920000
0#
01
02
1*
#940000
1#
11
12
0*
#960000
0#
01
02
1*
#980000
1#
11
12
0*
